<svg width="20" height="20" viewBox="0 0 20 20" fill="none" xmlns="http://www.w3.org/2000/svg">
<circle cx="10" cy="10" r="10" fill="#FF6B00"/>
<path d="M8.77344 16.3438H6.35156L10.5781 4.75H13L8.77344 16.3438ZM8.46094 13.1406L8.38281 13.2656H8.42188L8.53906 13.2188L8.46094 13.1406ZM8.22656 13.9766V14.0547L8.26562 14.0938H8.34375V14.0547L8.26562 13.9766H8.22656ZM7.67188 15.5781V15.6172L8.14844 15.8125L8.1875 15.8516H8.22656L8.1875 15.6562V15.5781L8.26562 15.4531H7.95312L7.67188 15.5781ZM8.64844 12.5938L8.73438 12.6797H8.8125V12.5938H8.64844ZM9.96875 11.4531V11.5312L10.0547 11.6094L10.0938 11.5703V11.5312L10.0156 11.4531H9.96875ZM10.9297 6.96875L11.0078 7.05469C11.2422 6.97656 11.375 6.89583 11.4062 6.8125L11.3672 6.77344C11.237 6.90365 11.0911 6.96875 10.9297 6.96875ZM9.82812 8.02344V8.10938L9.90625 8.1875V8.02344H9.82812ZM10.0625 8.26562V8.42188H10.1875V8.38281L10.1484 8.26562H10.0625ZM10.6562 8.14844V8.1875L11.0547 8.46875V8.3125C10.9193 8.21875 10.8516 8.09896 10.8516 7.95312C10.8099 7.95312 10.7708 8.01823 10.7344 8.14844H10.6562ZM10.7656 5.47656V5.52344C10.849 5.52344 10.9297 5.57552 11.0078 5.67969H11.0469L11.1641 5.5625L11.0469 5.35938H11.0078C10.9193 5.4375 10.8385 5.47656 10.7656 5.47656ZM9.90625 8.74219L9.86719 8.98438L9.98438 9.10156V9.17969L9.78906 9.21875H9.67188L9.58594 9.42188V9.46094L9.67188 9.53906H9.71094L9.90625 9.5L9.94531 9.69531H9.98438V9.46094C10.0365 9.46094 10.0625 9.40885 10.0625 9.30469L10.1094 9.25781H10.1484L10.3047 9.30469V9.25781C10.3047 9.20573 10.224 9.15365 10.0625 9.10156L10.0234 8.90625V8.85938H10.1094V8.82031C10.026 8.82031 9.98438 8.79427 9.98438 8.74219H9.90625ZM10.8203 9.5L10.7031 9.46094V9.61719H10.8203C10.8203 9.51302 10.9141 9.4349 11.1016 9.38281V9.30469H11.0625L10.8203 9.5ZM10.9844 9.78125V9.85938C11.0885 9.81771 11.1406 9.77865 11.1406 9.74219L10.9844 9.78125ZM10.1094 9.9375H10.2266L10.2656 9.89844H10.3047L10.2656 9.78125L10.1094 9.9375ZM10.5078 9.9375V9.97656C10.5078 10.0182 10.599 10.0859 10.7812 10.1797V10.0938C10.7031 10.0938 10.6641 10.0547 10.6641 9.97656L10.625 9.9375H10.5078ZM9.98438 10.2969V10.3359C10.0938 10.3359 10.1484 10.388 10.1484 10.4922H10.2266C10.2266 10.3724 10.2917 10.2682 10.4219 10.1797C10.1302 10.2057 9.98438 10.2448 9.98438 10.2969ZM10.7422 10.2969V10.3359H10.9062L10.8594 10.2969V10.2578L10.7422 10.2969ZM11.8516 5.6875C11.8516 5.79167 11.8255 5.84375 11.7734 5.84375L11.6484 5.80469L11.6094 5.84375V5.96875C11.6927 5.96875 11.7344 6.00781 11.7344 6.08594H11.7734C11.7734 5.95052 11.8385 5.88281 11.9688 5.88281H12.0938C12.0417 5.78906 11.9609 5.72396 11.8516 5.6875ZM10.1719 7.52344V7.57031H10.2109C10.2214 7.44531 10.3281 7.38281 10.5312 7.38281V7.20312C10.2917 7.29688 10.1719 7.40365 10.1719 7.52344ZM11.375 6.60156H11.4531L11.5312 6.52344H11.4531L11.375 6.60156ZM10.6953 7.47656L10.6484 7.66406H10.7734L10.8125 7.47656H10.6953ZM11.6094 7.07812V7.15625C11.5312 7.15625 11.4922 7.18229 11.4922 7.23438H11.6094L11.6484 7.11719V7.07812H11.6094ZM11.2109 7.32031H11.3359L11.4141 7.23438H11.2969L11.2109 7.32031ZM9.23438 11.2188V11.2578H9.32031C9.32031 11.2005 9.35938 11.1719 9.4375 11.1719V11.0938L9.23438 11.2188ZM9.28125 9.92188V9.96094L9.36719 10.0859V10.1641C9.36719 10.2422 9.3125 10.2812 9.20312 10.2812V10.3203H9.40625L9.44531 10.125C9.39323 10 9.33854 9.93229 9.28125 9.92188ZM8.92188 11.2578V11.3359H8.96094L9.03906 11.2578H8.92188ZM9.15625 11.6562L9.23438 11.7344H9.35938V11.6562H9.15625ZM8.79688 11.8906L8.88281 12.0078L9 11.9688L8.96094 11.8125L8.79688 11.8906ZM9.64062 10.7188V10.7969H9.76562V10.7188H9.64062ZM6.57031 4.76562C7.27344 4.79167 7.78906 5.0026 8.11719 5.39844L8.13281 5.38281V5.39844L8.11719 5.42188C8.36198 5.79688 8.48438 6.1875 8.48438 6.59375V8.67969C8.48438 9.14844 8.36198 9.53125 8.11719 9.82812H8.07031V9.84375L8.09375 9.91406L7.94531 10.0312H7.92969V9.99219H7.89062L7.86719 10.0547L7.89062 10.1172C7.66146 10.3568 7.22135 10.5 6.57031 10.5469V9.45312C6.97135 9.3125 7.17188 9.03906 7.17188 8.63281V6.53125C7.08854 6.13542 6.88802 5.91406 6.57031 5.86719V4.76562ZM8.05469 5.09375H8.09375C8.09375 5.11979 8.11458 5.13281 8.15625 5.13281V5.19531H8.11719C8.08594 5.19531 8.07031 5.17448 8.07031 5.13281H8.05469V5.17188H7.99219L8.05469 5.09375ZM7.27344 6.0625L7.29688 6.17969H7.33594L7.3125 6.16406V6.14062L7.35156 6.0625H7.27344ZM7.67969 6.22656L7.72656 6.26562L7.74219 6.24219V6.22656H7.67969ZM7.86719 8.67969V8.71875H7.99219V8.75781H8.01562V8.71875L7.94531 8.67969H7.86719ZM6.28906 5.85938C5.97135 5.91146 5.77083 6.13281 5.6875 6.52344V8.63281C5.6875 9.03906 5.88802 9.3099 6.28906 9.44531V10.5469C5.63802 10.4948 5.19792 10.349 4.96875 10.1094L4.99219 10.0469L4.96875 9.99219H4.92969V10.0312H4.91406L4.76562 9.90625L4.78906 9.84375V9.82031H4.74219C4.4974 9.52344 4.375 9.14062 4.375 8.67188V6.59375C4.375 6.18229 4.4974 5.78906 4.74219 5.41406L4.72656 5.39844V5.375L4.74219 5.39844C5.07031 4.9974 5.58594 4.78646 6.28906 4.76562V5.85938ZM4.86719 5.17188H4.80469V5.13281H4.78906C4.78906 5.16927 4.77344 5.1875 4.74219 5.1875H4.70312V5.13281C4.74479 5.13281 4.76562 5.11979 4.76562 5.09375H4.80469L4.86719 5.17188ZM4.99219 6.92188L5.08594 7.04688V7.08594L5.03906 7.11719H5.13281L5.17969 6.92188H4.99219ZM5.11719 6.21875V6.24219L5.13281 6.25781L5.17969 6.21875H5.11719ZM4.91406 8.67188L4.84375 8.71094V8.75781H4.86719V8.71094H4.99219V8.67188H4.91406ZM13.2109 10.2109C13.9141 10.237 14.4297 10.4479 14.7578 10.8438L14.7734 10.8281V10.8438L14.7578 10.8672C15.0026 11.2422 15.125 11.6328 15.125 12.0391V14.125C15.125 14.5938 15.0026 14.9766 14.7578 15.2734H14.7109V15.2891L14.7344 15.3594L14.5859 15.4766H14.5703V15.4375H14.5312L14.5078 15.5L14.5312 15.5625C14.3021 15.8021 13.862 15.9453 13.2109 15.9922V14.8984C13.612 14.7578 13.8125 14.4844 13.8125 14.0781V11.9766C13.7292 11.5807 13.5286 11.3594 13.2109 11.3125V10.2109ZM14.6953 10.5391H14.7344C14.7344 10.5651 14.7552 10.5781 14.7969 10.5781V10.6406H14.7578C14.7266 10.6406 14.7109 10.6198 14.7109 10.5781H14.6953V10.6172H14.6328L14.6953 10.5391ZM13.9141 11.5078L13.9375 11.625H13.9766L13.9531 11.6094V11.5859L13.9922 11.5078H13.9141ZM14.3203 11.6719L14.3672 11.7109L14.3828 11.6875V11.6719H14.3203ZM14.5078 14.125V14.1641H14.6328V14.2031H14.6562V14.1641L14.5859 14.125H14.5078ZM12.9297 11.3047C12.612 11.3568 12.4115 11.5781 12.3281 11.9688V14.0781C12.3281 14.4844 12.5286 14.7552 12.9297 14.8906V15.9922C12.2786 15.9401 11.8385 15.7943 11.6094 15.5547L11.6328 15.4922L11.6094 15.4375H11.5703V15.4766H11.5547L11.4062 15.3516L11.4297 15.2891V15.2656H11.3828C11.138 14.9688 11.0156 14.5859 11.0156 14.1172V12.0391C11.0156 11.6276 11.138 11.2344 11.3828 10.8594L11.3672 10.8438V10.8203L11.3828 10.8438C11.7109 10.4427 12.2266 10.2318 12.9297 10.2109V11.3047ZM11.5078 10.6172H11.4453V10.5781H11.4297C11.4297 10.6146 11.4141 10.6328 11.3828 10.6328H11.3438V10.5781C11.3854 10.5781 11.4062 10.5651 11.4062 10.5391H11.4453L11.5078 10.6172ZM11.6328 12.3672L11.7266 12.4922V12.5312L11.6797 12.5625H11.7734L11.8203 12.3672H11.6328ZM11.7578 11.6641V11.6875L11.7734 11.7031L11.8203 11.6641H11.7578ZM11.5547 14.1172L11.4844 14.1562V14.2031H11.5078V14.1562H11.6328V14.1172H11.5547Z" fill="white"/>
</svg>
