<svg width="49" height="22" viewBox="0 0 49 22" fill="none" xmlns="http://www.w3.org/2000/svg">
<g clip-path="url(#clip0)">
<path d="M23.9829 12.4719H24.7519V14.1933H25.302L26.2971 12.4719H27.1315L25.9346 14.4847V14.4989L27.2025 16.7022H26.3326L25.302 14.8543H24.7548V16.7022H23.9858L23.9829 12.4719ZM28.9211 13.592C29.8507 13.592 30.5941 14.253 30.5941 15.1827C30.5941 16.1123 29.8507 16.7733 28.9282 16.7733C28.0057 16.7733 27.2608 16.118 27.2608 15.1827C27.2608 14.2473 28.0028 13.592 28.9225 13.592H28.9211ZM28.9211 16.1294C29.1104 16.139 29.2983 16.0917 29.4605 15.9935C29.6227 15.8953 29.7517 15.7507 29.8309 15.5785C29.91 15.4062 29.9358 15.2142 29.9047 15.0272C29.8737 14.8401 29.7872 14.6667 29.6566 14.5293C29.526 14.3919 29.3572 14.2968 29.172 14.2563C28.9868 14.2157 28.7937 14.2317 28.6176 14.302C28.4416 14.3724 28.2907 14.4939 28.1844 14.6508C28.0781 14.8078 28.0213 14.9931 28.0213 15.1827C28.0155 15.3052 28.0347 15.4276 28.0777 15.5424C28.1207 15.6573 28.1867 15.7621 28.2715 15.8507C28.3563 15.9393 28.4583 16.0096 28.5712 16.0575C28.6841 16.1054 28.8055 16.1299 28.9282 16.1294H28.9211ZM31.1954 13.6631H31.9161V16.0625H32.8628V13.6631H33.5835V16.0625H34.5415V13.6631H35.2523V16.7008H31.2025L31.1954 13.6631ZM37.42 13.592C38.2899 13.592 38.7661 14.2289 38.7661 15.0334C38.764 15.1309 38.7559 15.2283 38.742 15.3248H36.6595C36.6738 15.5523 36.7778 15.7648 36.9486 15.9156C37.1195 16.0665 37.3432 16.1434 37.5707 16.1294C37.8897 16.1178 38.1958 16.0003 38.4406 15.7953L38.7391 16.3369C38.3947 16.6188 37.9632 16.7725 37.5181 16.7719C36.5117 16.7719 35.8806 16.0455 35.8806 15.1812C35.8791 14.2459 36.516 13.592 37.4271 13.592H37.42ZM38.0099 14.8074C38.0099 14.4023 37.7413 14.1635 37.403 14.1635C37.2229 14.1612 37.0484 14.2258 36.9132 14.3447C36.778 14.4637 36.6916 14.6285 36.6709 14.8074H38.0099ZM39.1243 16.064C39.4996 16.01 39.7612 15.6944 39.7612 14.6169V13.6645H41.9772V16.7022H41.2224V14.2758H40.4833V14.6155C40.4833 15.9375 40.1322 16.6994 39.1258 16.7306L39.1243 16.064ZM44.1407 13.592C45.0106 13.592 45.4868 14.2289 45.4868 15.0334C45.4847 15.1309 45.4766 15.2283 45.4627 15.3248H43.3788C43.393 15.5523 43.497 15.7648 43.6679 15.9156C43.8387 16.0665 44.0625 16.1434 44.2899 16.1294C44.609 16.1178 44.9151 16.0003 45.1599 15.7953L45.4584 16.3369C45.114 16.6188 44.6824 16.7725 44.2373 16.7719C43.231 16.7719 42.5998 16.0455 42.5998 15.1812C42.5984 14.2459 43.2366 13.592 44.1478 13.592H44.1407ZM44.7306 14.8074C44.7306 14.4023 44.4619 14.1635 44.1236 14.1635C43.9436 14.1612 43.7691 14.2258 43.6338 14.3447C43.4986 14.4637 43.4123 14.6285 43.3916 14.8074H44.7306ZM46.1236 13.6702H46.8798V14.8316H47.2494L47.9886 13.6702H48.8287L47.8635 15.1173V15.1286L48.9481 16.7065H48.0725L47.275 15.4741H46.8813V16.7065H46.1251L46.1236 13.6702Z" fill="#2D3540"/>
<path d="M34.5933 3.23857V10.4212C34.5933 10.4729 34.5727 10.5224 34.5362 10.5589C34.4997 10.5955 34.4502 10.616 34.3985 10.616H32.9316C32.8799 10.616 32.8304 10.5955 32.7939 10.5589C32.7574 10.5224 32.7368 10.4729 32.7368 10.4212V3.23857C32.7368 3.18692 32.7574 3.13739 32.7939 3.10087C32.8304 3.06435 32.8799 3.04383 32.9316 3.04383H34.3985C34.4502 3.04383 34.4997 3.06435 34.5362 3.10087C34.5727 3.13739 34.5933 3.18692 34.5933 3.23857ZM46.0261 3.04383H44.3843C44.3421 3.04411 44.301 3.05813 44.2674 3.08377C44.2338 3.10941 44.2095 3.14529 44.1981 3.18598L42.8989 7.42478L41.4774 3.17603C41.4643 3.13742 41.4394 3.1039 41.4063 3.08018C41.3731 3.05647 41.3334 3.04375 41.2926 3.04383H40.1469C40.1062 3.04375 40.0664 3.05647 40.0333 3.08018C40.0001 3.1039 39.9752 3.13742 39.9621 3.17603L38.5208 7.42478L37.2215 3.18029C37.2101 3.1396 37.1858 3.10373 37.1522 3.07809C37.1186 3.05244 37.0776 3.03842 37.0353 3.03814H35.3936C35.3627 3.03831 35.3324 3.04573 35.305 3.0598C35.2776 3.07388 35.2539 3.09422 35.2358 3.11917C35.2176 3.14401 35.2056 3.17286 35.2009 3.20329C35.1962 3.23372 35.1989 3.26484 35.2088 3.29401L37.6253 10.4795C37.6383 10.5181 37.6632 10.5516 37.6964 10.5753C37.7295 10.5991 37.7693 10.6118 37.81 10.6117H39.1135C39.1543 10.6118 39.194 10.5991 39.2272 10.5753C39.2603 10.5516 39.2852 10.5181 39.2983 10.4795L40.7127 6.28192L42.127 10.4795C42.1401 10.5181 42.165 10.5516 42.1981 10.5753C42.2313 10.5991 42.2711 10.6118 42.3118 10.6117H43.6153C43.6561 10.6118 43.6958 10.5991 43.729 10.5753C43.7621 10.5516 43.787 10.5181 43.8001 10.4795L46.2166 3.29401C46.2264 3.26484 46.2291 3.23372 46.2244 3.20329C46.2197 3.17286 46.2078 3.14401 46.1896 3.11917C46.1703 3.09447 46.1454 3.07475 46.117 3.06164C46.0886 3.04854 46.0574 3.04243 46.0261 3.04383ZM48.4952 3.04383H47.0282C46.9766 3.04383 46.9271 3.06435 46.8905 3.10087C46.854 3.13739 46.8335 3.18692 46.8335 3.23857V10.4212C46.8335 10.4729 46.854 10.5224 46.8905 10.5589C46.9271 10.5955 46.9766 10.616 47.0282 10.616H48.4952C48.5468 10.616 48.5964 10.5955 48.6329 10.5589C48.6694 10.5224 48.6899 10.4729 48.6899 10.4212V3.23857C48.6899 3.18692 48.6694 3.13739 48.6329 3.10087C48.5964 3.06435 48.5468 3.04383 48.4952 3.04383ZM31.8868 10.3757C31.9097 10.396 31.9255 10.423 31.9318 10.4529C31.9381 10.4828 31.9346 10.5139 31.9219 10.5417C31.9091 10.5694 31.8877 10.5923 31.8609 10.607C31.8341 10.6217 31.8033 10.6273 31.7731 10.6231H29.9749C29.9389 10.6231 29.9033 10.6153 29.8706 10.6C29.8379 10.5848 29.809 10.5626 29.7859 10.5349L29.4817 10.1682C28.6567 10.7018 27.6635 10.9114 26.6932 10.7567C25.723 10.6019 24.8442 10.0938 24.2262 9.33004C23.6081 8.56629 23.2943 7.60091 23.3453 6.61971C23.3963 5.63852 23.8084 4.71085 24.5023 4.01528C25.1963 3.3197 26.1229 2.90537 27.104 2.85203C28.0851 2.79869 29.0512 3.11012 29.8164 3.72636C30.5817 4.34261 31.0919 5.22013 31.249 6.19001C31.406 7.1599 31.1988 8.1536 30.6672 8.97986L31.8868 10.3757ZM28.3232 8.76949L27.5357 7.81711C27.517 7.79493 27.505 7.76787 27.5012 7.73911C27.4973 7.71035 27.5018 7.68109 27.5141 7.65479C27.5263 7.62849 27.5458 7.60625 27.5703 7.59068C27.5948 7.57511 27.6232 7.56687 27.6523 7.56693H29.2997C29.3804 7.32786 29.4217 7.07725 29.422 6.82492C29.422 5.638 28.5392 4.61597 27.3267 4.61597C26.1142 4.61597 25.2315 5.63942 25.2315 6.82492C25.2315 8.01043 26.1142 9.01966 27.3267 9.01966C27.6748 9.02297 28.0179 8.93683 28.3232 8.76949ZM16.9145 13.8526C16.8448 13.8154 16.7634 13.8065 16.6873 13.828C16.6113 13.8495 16.5465 13.8996 16.5066 13.9678C16.3985 14.1639 16.4781 14.552 16.6956 14.8917C16.9131 15.2315 17.1021 15.4091 17.25 15.4091C17.3978 15.4091 17.5215 15.2315 17.4575 14.8022C17.4234 14.5449 17.2813 13.9891 16.9145 13.8526ZM14.7454 15.4532C14.6588 15.4486 14.5722 15.4635 14.4923 15.497C14.4123 15.5305 14.3409 15.5816 14.2834 15.6465C14.0247 15.9649 14.1412 16.5264 14.5364 16.8718C14.723 17.0279 14.9584 17.1134 15.2017 17.1135C15.3128 17.1184 15.4236 17.0972 15.5251 17.0516C15.6265 17.0059 15.7159 16.937 15.7859 16.8505C16.0162 16.5421 15.884 16.1042 15.449 15.7361C15.256 15.5632 15.0086 15.4631 14.7496 15.4532H14.7454ZM9.78303 19.5669C7.624 19.5661 5.52592 18.8509 3.81598 17.5327C2.10604 16.2145 0.880361 14.3676 0.330073 12.2799C-0.220215 10.1921 -0.064175 7.981 0.77386 5.99125C1.6119 4.00149 3.08482 2.34498 4.96293 1.28004C6.84105 0.215097 9.01878 -0.198416 11.1565 0.103985C13.2943 0.406385 15.2719 1.4077 16.7809 2.95178C18.29 4.49587 19.2456 6.49592 19.4989 8.64004C19.7522 10.7842 19.2888 12.9518 18.181 14.805C18.1743 14.8148 18.1648 14.8224 18.1537 14.8267C18.1426 14.831 18.1305 14.832 18.1189 14.8294C18.1073 14.8268 18.0967 14.8208 18.0885 14.8121C18.0804 14.8035 18.075 14.7926 18.073 14.7809C17.7375 12.3757 16.2678 11.0509 14.1299 10.6586C13.9451 10.6245 13.9095 10.5165 14.1555 10.4895C14.8396 10.4295 15.5281 10.4424 16.2095 10.5278C16.2376 10.2782 16.2514 10.0271 16.2507 9.77588C16.2507 8.4967 15.8714 7.24624 15.1607 6.18264C14.45 5.11904 13.4399 4.29007 12.2581 3.80054C11.0763 3.31102 9.77586 3.18294 8.52125 3.4325C7.26665 3.68205 6.11422 4.29804 5.2097 5.20256C4.30519 6.10707 3.6892 7.2595 3.43964 8.51411C3.19009 9.76871 3.31817 11.0691 3.80769 12.251C4.29721 13.4328 5.12619 14.4429 6.18979 15.1535C7.25339 15.8642 8.50385 16.2435 9.78303 16.2435C9.88538 16.2435 9.9863 16.2435 10.0872 16.2435C9.98791 15.6663 9.94696 15.0806 9.96498 14.4951C9.98061 14.1 10.0602 14.046 10.2393 14.353C11.1348 15.8953 12.4184 17.3011 14.9159 17.8512C16.9572 18.3004 19.0041 18.8335 21.2173 21.6266C21.4135 21.8754 21.1135 22.1227 20.8875 21.9237C18.6359 19.9337 16.6018 19.2855 14.7269 19.2855C12.6388 19.2883 11.2159 19.5669 9.78303 19.5669Z" fill="#FF8C00"/>
</g>
<defs>
<clipPath id="clip0">
<rect width="48.9538" height="22" fill="white"/>
</clipPath>
</defs>
</svg>
